<svg width="26" height="26" viewBox="0 0 26 26" fill="none" xmlns="http://www.w3.org/2000/svg">
<path d="M4.16332 4.59574V21.3916H12.5024V8.79158H16.6657V21.3916H20.8289V4.59574H4.16326H4.16332ZM25.0047 0.399902V25.5999H0V0.399902H25.0047V0.399902Z" fill="#D14748"/>
</svg>
