<svg width="1040" height="225" viewBox="0 0 1040 225" fill="none" xmlns="http://www.w3.org/2000/svg">
    <path d="M58.5362 182.677C61.2166 180.856 61.3238 179.356 58.5362 179.356C55.7486 179.356 54.6764 178.284 56.2846 174.213C57.8929 170.141 39.5589 171.427 41.2743 170.356C42.9898 169.284 39.5589 168.213 38.5939 167.998C37.629 167.784 33.8764 167.034 36.9857 165.427C40.095 163.82 32.1609 160.713 26.9073 160.713C21.6537 160.713 28.5156 160.713 28.5156 158.57C28.5156 156.427 26.3712 157.177 27.1218 156.748C27.8723 156.32 25.0846 155.248 18.8661 153.748C12.6475 152.248 23.1547 149.891 23.1547 149.891C37.8434 145.498 17.4723 136.606 13.7197 136.606C13.1915 136.653 12.6615 136.537 12.2022 136.272C11.7429 136.007 11.3767 135.607 11.1537 135.126C10.9308 134.645 10.8619 134.107 10.9566 133.585C11.0512 133.064 11.3048 132.585 11.6826 132.213C12.6475 131.677 20.4743 126.427 14.363 122.141C8.25165 117.856 17.9011 111.427 17.9011 111.427C20.2599 109.498 23.9053 113.034 25.1919 113.248C26.4785 113.463 29.2661 111.963 28.4084 110.998C27.5506 110.034 27.229 107.998 35.2702 104.57C43.3114 101.141 36.0207 91.6055 35.9135 89.2484C35.8063 86.8912 37.3073 87.7484 38.2723 86.2484C39.2372 84.7484 35.163 84.5341 37.0929 83.8913C39.0228 83.2484 33.7692 81.7484 30.9815 81.5341C28.1939 81.3198 35.163 81.5341 35.5919 80.1413C36.0207 78.7484 32.4826 80.1412 34.7341 77.0341C36.9857 73.927 22.1898 74.1413 22.9403 71.2484C23.6908 68.3555 22.297 70.2841 21.9754 68.9984C21.6537 67.7127 21.9754 68.9984 23.4764 68.0341C16.8343 67.1276 10.1222 66.8407 3.42691 67.177C-7.29474 67.177 9.53825 63.2127 14.1486 62.3555C18.7589 61.4984 19.1877 58.4984 16.0785 57.9627C12.9692 57.427 13.0764 56.3555 14.4702 56.0341C15.864 55.7127 9.96711 54.3198 10.7176 53.5698C11.4681 52.8198 12.2187 52.7127 6.42897 50.9984C0.639279 49.2841 10.7176 47.3555 10.7176 47.3555C50.9238 39.8555 26.9073 40.177 54.8908 29.5698C82.8743 18.9627 316.499 1.17696 341.373 -0.00161143C366.248 -1.18018 379.221 3.31982 356.384 9.5341C333.546 15.7484 360.672 17.3555 372.466 18.6412C384.26 19.927 594.833 29.2484 615.311 32.1412C635.79 35.0341 661.629 38.677 617.67 45.7484C573.711 52.8198 611.559 59.3555 627.105 62.5698C642.652 65.7841 643.295 65.3555 632.573 71.7841C621.852 78.2127 664.095 82.4984 677.926 86.1412C691.757 89.7841 691.971 92.8912 685.645 94.6055C679.32 96.3198 683.072 99.8555 690.149 100.606C697.225 101.356 687.79 109.07 718.775 108.748C749.761 108.427 863.518 129.32 902.008 137.356C940.499 145.391 927.848 150.32 904.045 149.248C880.243 148.177 864.697 150.963 883.245 157.713C901.794 164.463 894.503 164.784 874.454 165.427C854.404 166.07 885.819 173.998 912.194 181.284C938.569 188.57 925.382 189.106 904.474 188.891C883.567 188.677 915.839 199.606 938.14 201.856C960.441 204.106 1063.26 234.856 968.161 216.213C873.06 197.57 672.672 184.07 625.068 188.356C577.464 192.641 679.749 198.213 702.05 200.356C724.351 202.498 677.604 203.248 638.363 200.356C599.122 197.463 402.487 205.177 328.936 216.641C255.386 228.106 258.709 215.677 278.866 208.284C319.18 193.391 546.907 155.463 280.045 197.57C13.1836 239.677 63.2537 221.356 78.9073 218.463C94.5609 215.57 51.7815 202.284 46.7424 199.391C41.7032 196.498 51.6743 187.284 58.5362 182.677ZM836.285 64.2841C836.285 64.2841 717.06 52.4984 692.507 53.5698C667.955 54.6413 715.452 58.8198 836.285 64.2841ZM793.398 77.9984C780.201 75.6702 766.804 74.6652 753.406 74.9984C738.718 76.927 784.499 76.8198 793.398 77.9984ZM1040 192.856C1040 192.856 991.32 169.391 977.703 171.427C964.087 173.463 1023.48 186.427 1040 192.856ZM1007.83 53.5698C1007.83 53.5698 932.779 32.1412 896.111 32.1412C859.443 32.1412 992.928 47.4627 1007.83 53.5698ZM1029.27 85.7127C1019.71 80.9163 1009.59 77.3177 999.147 74.9984C988.103 73.8198 1025.95 84.1055 1029.27 85.7127Z"
          fill="#6FEC96"/>

</svg>
